{
    "componentChunkName": "component---node-modules-gatsby-theme-buzzing-src-gatsby-theme-timeline-templates-posts-query-js",
    "path": "/page/36",
    "result": {"data":{"site":{"siteMetadata":{"title":"华尔街日报热门","author":"Buzzing.cc","description":"用中文浏览华尔街日报热门报道","keywords":["buzzing","华尔街日报","wsj","华尔街日报中文网"],"siteUrl":"https://wsj.buzzing.cc","telegram":"@buzzingcc","iconUrl":"https://wsj.buzzing.cc/avatar.png","defaultSocialImageUrl":null,"social":[{"name":"The Wall Street Journal","url":"https://www.wsj.com","external":true},{"name":"Buzzing","url":"https://www.buzzing.cc/","external":true}],"menuLinks":[],"disqus":null,"utterances":null,"localize":[{"title":"Buzzing on The Wall Street Journal","description":"See what's buzzing on The Wall Street Journal in your native language","keywords":["buzzing","The Wall Street Journal"],"locale":"en","social":{"name":null,"url":null,"external":null},"menuLinks":[{"name":"Weekly Selection","url":"/issues","external":null}]},{"title":"華爾街日報熱門","description":"用中文瀏覽華爾街日報熱門報導","keywords":["buzzing","華爾街日報","wsj","華爾街日報中文網"],"locale":"zh-Hant","social":null,"menuLinks":[]},{"title":"ウォール・ストリート・ジャーナル","description":"人気のウォール・ストリート・ジャーナルを日本語で閲覧","keywords":["buzzing","ウォール・ストリート・ジャーナル"],"locale":"ja","social":null,"menuLinks":[]}]}},"tagsGroup":{"group":[{"fieldValue":"ElectionDay2021","totalCount":1},{"fieldValue":"VaGov","totalCount":1},{"fieldValue":"WSJCEOCouncil","totalCount":2},{"fieldValue":"WSJTechLive","totalCount":2},{"fieldValue":"WSJWhatsNow","totalCount":48},{"fieldValue":"tweet","totalCount":1751}]},"allBlogPost":{"nodes":[{"id":"TweetPost-1443745149205598211","excerpt":"","slug":"/tweet/1443745149205598211","title":"Disney and Scarlett Johansson have resolved their legal battle over her salary in “Black Widow,” ending a two-month fight between the media giant and one of Hollywood’s biggest stars https://t.co/LBkWmqjcZK","date":"October 01, 2021","dateISO":"2021-10-01T02:16:15.000Z","datetime":"2021-10-01 02:16","tags":["tweet"],"image":null,"imageAlt":null,"__typename":"SocialMediaPost","provider":"Twitter","thirdPartyId":"1443745149205598211","url":"https://twitter.com/WSJ/statuses/1443745149205598211","originalUrl":null,"imageRemote":null,"video":null,"channel":null,"channelUrl":null,"author":"The Wall Street Journal","authorUrl":"https://twitter.com/WSJ","authorImageRemote":"https://pbs.twimg.com/profile_images/971415515754266624/zCX0q9d5.jpg","authorImage":null,"authorSlug":"WSJ","score":184,"views":null,"sharedCount":28,"likeCount":128,"sharedContent":null,"parent":{"localize":[{"locale":"ja","full_text":"ディズニーとスカーレット・ヨハンソンは、「ブラック・ウィドウ」の出演料をめぐる訴訟を解決し、メディア大手とハリウッドの大スターとの2ヶ月にわたる争いに終止符を打ちました。https://t.co/LBkWmqjcZK","quoted_status_full_text":null,"retweeted_status_full_text":null},{"locale":"zh","full_text":"迪斯尼和斯嘉丽-约翰逊已经解决了他们关于她在《黑寡妇》中的工资的法律纠纷，结束了媒体巨头和好莱坞最大的明星之一之间两个月的斗争https://t.co/LBkWmqjcZK。","quoted_status_full_text":null,"retweeted_status_full_text":null},{"locale":"zh-Hant","full_text":"迪斯尼和斯嘉麗-約翰遜已經解決了他們關於她在《黑寡婦》中的工資的法律糾紛，結束了媒體巨頭和好萊塢最大的明星之一之間兩個月的鬥爭https://t.co/LBkWmqjcZK。","quoted_status_full_text":null,"retweeted_status_full_text":null}]}}]}},"pageContext":{"basePath":"/","pageType":"home","tagsFilter":{"date":{"gt":"2000-12-25T10:54:58.000Z"}},"filter":{"date":{"gt":"2000-12-25T10:54:58.000Z"}},"limit":50,"skip":1750,"totalPages":36,"total":1751,"currentPage":36,"maxWidth":1024,"maxHeight":512,"siteMetadata":null,"locale":"zh","hrefLang":"zh-Hans","originalPath":"/page/36","dateFormat":"YYYY-MM-DD"}},
    "staticQueryHashes": ["1239077767","2744905544","3025052997","3280999885"]}