{
    "componentChunkName": "component---node-modules-gatsby-theme-buzzing-src-gatsby-theme-timeline-templates-posts-query-js",
    "path": "/en/page/36",
    "result": {"data":{"site":{"siteMetadata":{"title":"华尔街日报热门","author":"Buzzing.cc","description":"用中文浏览华尔街日报热门报道","keywords":["buzzing","华尔街日报","wsj","华尔街日报中文网"],"siteUrl":"https://wsj.buzzing.cc","telegram":"@buzzingcc","iconUrl":"https://wsj.buzzing.cc/avatar.png","defaultSocialImageUrl":null,"social":[{"name":"The Wall Street Journal","url":"https://www.wsj.com","external":true},{"name":"Buzzing","url":"https://www.buzzing.cc/","external":true}],"menuLinks":[],"disqus":null,"utterances":null,"localize":[{"title":"Buzzing on The Wall Street Journal","description":"See what's buzzing on The Wall Street Journal in your native language","keywords":["buzzing","The Wall Street Journal"],"locale":"en","social":{"name":null,"url":null,"external":null},"menuLinks":[{"name":"Weekly Selection","url":"/issues","external":null}]},{"title":"華爾街日報熱門","description":"用中文瀏覽華爾街日報熱門報導","keywords":["buzzing","華爾街日報","wsj","華爾街日報中文網"],"locale":"zh-Hant","social":null,"menuLinks":[]},{"title":"ウォール・ストリート・ジャーナル","description":"人気のウォール・ストリート・ジャーナルを日本語で閲覧","keywords":["buzzing","ウォール・ストリート・ジャーナル"],"locale":"ja","social":null,"menuLinks":[]}]}},"tagsGroup":{"group":[{"fieldValue":"ElectionDay2021","totalCount":1},{"fieldValue":"VaGov","totalCount":1},{"fieldValue":"WSJCEOCouncil","totalCount":2},{"fieldValue":"WSJTechLive","totalCount":2},{"fieldValue":"WSJWhatsNow","totalCount":49},{"fieldValue":"tweet","totalCount":1761}]},"allBlogPost":{"nodes":[{"id":"TweetPost-1443883322585780238","excerpt":"","slug":"/tweet/1443883322585780238","title":"Merck said its experimental pill helped prevent serious illness and death in high-risk people infected with Covid-19, a step toward the virus’s first at-home treatment https://t.co/kxJ6A7wfSr","date":"October 01, 2021","dateISO":"2021-10-01T10:35:59.000Z","datetime":"2021-10-01 10:35","tags":["tweet"],"image":null,"imageAlt":null,"__typename":"SocialMediaPost","provider":"Twitter","thirdPartyId":"1443883322585780238","url":"https://twitter.com/WSJ/statuses/1443883322585780238","originalUrl":null,"imageRemote":null,"video":null,"channel":null,"channelUrl":null,"author":"The Wall Street Journal","authorUrl":"https://twitter.com/WSJ","authorImageRemote":"https://pbs.twimg.com/profile_images/971415515754266624/zCX0q9d5.jpg","authorImage":null,"authorSlug":"WSJ","score":171,"views":null,"sharedCount":36,"likeCount":99,"sharedContent":null,"parent":{"localize":[{"locale":"ja","full_text":"メルク社は、実験的に開発した錠剤が、コビッド19に感染したハイリスクの人々の重症化や死亡を防ぐのに役立ったと発表し、ウイルスの初の自宅治療に向けた一歩を踏み出した。https://t.co/kxJ6A7wfSr","quoted_status_full_text":null,"retweeted_status_full_text":null},{"locale":"zh","full_text":"默克公司表示，其实验性药丸有助于预防感染Covid-19的高危人群的严重疾病和死亡，这是向该病毒的首次家庭治疗迈出的一步https://t.co/kxJ6A7wfSr。","quoted_status_full_text":null,"retweeted_status_full_text":null},{"locale":"zh-Hant","full_text":"默克公司表示，其實驗性藥丸有助於預防感染Covid-19的高危人羣的嚴重疾病和死亡，這是向該病毒的首次家庭治療邁出的一步https://t.co/kxJ6A7wfSr。","quoted_status_full_text":null,"retweeted_status_full_text":null}]}},{"id":"TweetPost-1443512203735412745","excerpt":"","slug":"/tweet/1443512203735412745","title":"Jon Stewart left TV six years ago. Streaming services have often struggled with the talk-show format. Will his new show for Apple TV+, \"The Problem With Jon Stewart,\" be different? https://t.co/RIC2qKAeyh","date":"October 01, 2021","dateISO":"2021-10-01T10:14:59.000Z","datetime":"2021-10-01 10:14","tags":["tweet"],"image":null,"imageAlt":null,"__typename":"SocialMediaPost","provider":"Twitter","thirdPartyId":"1443512203735412745","url":"https://twitter.com/WSJ/statuses/1443512203735412745","originalUrl":null,"imageRemote":null,"video":null,"channel":null,"channelUrl":null,"author":"The Wall Street Journal","authorUrl":"https://twitter.com/WSJ","authorImageRemote":"https://pbs.twimg.com/profile_images/971415515754266624/zCX0q9d5.jpg","authorImage":null,"authorSlug":"WSJ","score":151,"views":null,"sharedCount":26,"likeCount":99,"sharedContent":null,"parent":{"localize":[{"locale":"ja","full_text":"ジョン・スチュワートがテレビから去ったのは6年前。ストリーミングサービスでは、トークショーのフォーマットにしばしば苦労してきました。Apple TV+向けの新番組「The Problem With Jon Stewart」は、それとは違うものになるのでしょうか。https://t.co/RIC2qKAeyh","quoted_status_full_text":null,"retweeted_status_full_text":null},{"locale":"zh","full_text":"乔恩-斯图尔特六年前离开了电视台。流媒体服务经常在脱口秀的形式上挣扎。他为Apple TV+制作的新节目 \"The Problem With Jon Stewart \"是否会有所不同？https://t.co/RIC2qKAeyh","quoted_status_full_text":null,"retweeted_status_full_text":null},{"locale":"zh-Hant","full_text":"喬恩-斯圖爾特六年前離開了電視臺。流媒體服務經常在脫口秀的形式上掙扎。他爲Apple TV+製作的新節目 \"The Problem With Jon Stewart \"是否會有所不同？https://t.co/RIC2qKAeyh","quoted_status_full_text":null,"retweeted_status_full_text":null}]}},{"id":"TweetPost-1443802876309118976","excerpt":"","slug":"/tweet/1443802876309118976","title":"From @WSJopinion: Saule Omarova is the wrong nominee for the wrong industry in the wrong country in the wrong century https://t.co/893JYJIH4D","date":"October 01, 2021","dateISO":"2021-10-01T06:50:01.000Z","datetime":"2021-10-01 06:50","tags":["tweet"],"image":null,"imageAlt":null,"__typename":"SocialMediaPost","provider":"Twitter","thirdPartyId":"1443802876309118976","url":"https://twitter.com/WSJ/statuses/1443802876309118976","originalUrl":null,"imageRemote":null,"video":null,"channel":null,"channelUrl":null,"author":"The Wall Street Journal","authorUrl":"https://twitter.com/WSJ","authorImageRemote":"https://pbs.twimg.com/profile_images/971415515754266624/zCX0q9d5.jpg","authorImage":null,"authorSlug":"WSJ","score":159,"views":null,"sharedCount":33,"likeCount":93,"sharedContent":null,"parent":{"localize":[{"locale":"ja","full_text":"@WSJopinionより。Saule Omarova氏は、間違った世紀に、間違った国の、間違った業界の、間違った候補者である。https://t.co/893JYJIH4D","quoted_status_full_text":null,"retweeted_status_full_text":null},{"locale":"zh","full_text":"来自@WSJopinion。Saule Omarova是在错误的世纪，在错误的国家，为错误的行业提名的错误人选 https://t.co/893JYJIH4D","quoted_status_full_text":null,"retweeted_status_full_text":null},{"locale":"zh-Hant","full_text":"來自@WSJopinion。Saule Omarova是在錯誤的世紀，在錯誤的國家，爲錯誤的行業提名的錯誤人選 https://t.co/893JYJIH4D","quoted_status_full_text":null,"retweeted_status_full_text":null}]}},{"id":"TweetPost-1443810432435859457","excerpt":"","slug":"/tweet/1443810432435859457","title":"Sen. Blumenthal wanted to see what life was like on Instagram for teens, so his office set up an account that identified as a 13-year-old girl. Within a day, Instagram had served up content that promoted eating disorders and self injury, he said. https://t.co/FtuxHlQO7Z","date":"October 01, 2021","dateISO":"2021-10-01T06:28:36.000Z","datetime":"2021-10-01 06:28","tags":["tweet"],"image":null,"imageAlt":null,"__typename":"SocialMediaPost","provider":"Twitter","thirdPartyId":"1443810432435859457","url":"https://twitter.com/WSJ/statuses/1443810432435859457","originalUrl":null,"imageRemote":null,"video":null,"channel":null,"channelUrl":null,"author":"The Wall Street Journal","authorUrl":"https://twitter.com/WSJ","authorImageRemote":"https://pbs.twimg.com/profile_images/971415515754266624/zCX0q9d5.jpg","authorImage":null,"authorSlug":"WSJ","score":162,"views":null,"sharedCount":39,"likeCount":84,"sharedContent":null,"parent":{"localize":[{"locale":"ja","full_text":"ブルメンタール上院議員は、10代の若者がInstagramでどのような生活をしているのかを知りたいと思い、オフィスで13歳の少女を装ったアカウントを立ち上げました。すると、その日のうちに、インスタグラムには摂食障害や自傷行為を助長するようなコンテンツが投稿されていたという。https://t.co/FtuxHlQO7Z","quoted_status_full_text":null,"retweeted_status_full_text":null},{"locale":"zh","full_text":"布卢门撒尔参议员想看看青少年在Instagram上的生活是什么样的，所以他的办公室设立了一个账户，该账户的身份是一个13岁的女孩。他说，一天之内，Instagram就提供了宣传饮食失调和自我伤害的内容。https://t.co/FtuxHlQO7Z","quoted_status_full_text":null,"retweeted_status_full_text":null},{"locale":"zh-Hant","full_text":"布盧門撒爾參議員想看看青少年在Instagram上的生活是什麼樣的，所以他的辦公室設立了一個賬戶，該賬戶的身份是一個13歲的女孩。他說，一天之內，Instagram就提供了宣傳飲食失調和自我傷害的內容。https://t.co/FtuxHlQO7Z","quoted_status_full_text":null,"retweeted_status_full_text":null}]}},{"id":"TweetPost-1443765137169604610","excerpt":"","slug":"/tweet/1443765137169604610","title":"Democratic Sen. Joe Manchin called for shrinking Democrats’ sweeping education, healthcare and climate package by more than half—to $1.5 trillion https://t.co/bjfHQwMT3h","date":"October 01, 2021","dateISO":"2021-10-01T04:45:44.000Z","datetime":"2021-10-01 04:45","tags":["tweet"],"image":null,"imageAlt":null,"__typename":"SocialMediaPost","provider":"Twitter","thirdPartyId":"1443765137169604610","url":"https://twitter.com/WSJ/statuses/1443765137169604610","originalUrl":null,"imageRemote":null,"video":null,"channel":null,"channelUrl":null,"author":"The Wall Street Journal","authorUrl":"https://twitter.com/WSJ","authorImageRemote":"https://pbs.twimg.com/profile_images/971415515754266624/zCX0q9d5.jpg","authorImage":null,"authorSlug":"WSJ","score":159,"views":null,"sharedCount":26,"likeCount":107,"sharedContent":null,"parent":{"localize":[{"locale":"ja","full_text":"民主党のジョー・マンチン上院議員は、民主党の教育、医療、気候変動対策のための大規模なパッケージを半分以下の1.5兆ドルに縮小することを要求した。https://t.co/bjfHQwMT3h","quoted_status_full_text":null,"retweeted_status_full_text":null},{"locale":"zh","full_text":"民主党参议员乔-曼钦呼吁将民主党的全面教育、医疗和气候方案缩减一半以上至1.5万亿美元https://t.co/bjfHQwMT3h。","quoted_status_full_text":null,"retweeted_status_full_text":null},{"locale":"zh-Hant","full_text":"民主黨參議員喬-曼欽呼籲將民主黨的全面教育、醫療和氣候方案縮減一半以上至1.5萬億美元https://t.co/bjfHQwMT3h。","quoted_status_full_text":null,"retweeted_status_full_text":null}]}},{"id":"TweetPost-1443164931373903876","excerpt":"","slug":"/tweet/1443164931373903876","title":"A North Korean weapons launch detected Tuesday was a new hypersonic missile, with a fuel system that makes deployment faster and more mobile https://t.co/MsWR8O3mg2","date":"October 01, 2021","dateISO":"2021-10-01T03:53:36.000Z","datetime":"2021-10-01 03:53","tags":["tweet"],"image":null,"imageAlt":null,"__typename":"SocialMediaPost","provider":"Twitter","thirdPartyId":"1443164931373903876","url":"https://twitter.com/WSJ/statuses/1443164931373903876","originalUrl":null,"imageRemote":null,"video":null,"channel":null,"channelUrl":null,"author":"The Wall Street Journal","authorUrl":"https://twitter.com/WSJ","authorImageRemote":"https://pbs.twimg.com/profile_images/971415515754266624/zCX0q9d5.jpg","authorImage":null,"authorSlug":"WSJ","score":151,"views":null,"sharedCount":35,"likeCount":81,"sharedContent":null,"parent":{"localize":[{"locale":"ja","full_text":"火曜日に検出された北朝鮮の兵器の発射は、新型の極超音速ミサイルで、展開をより速く、より機動的にする燃料システムを備えていました https://t.co/MsWR8O3mg2","quoted_status_full_text":null,"retweeted_status_full_text":null},{"locale":"zh","full_text":"周二检测到的朝鲜武器发射是一种新的高超音速导弹，其燃料系统使部署速度更快，流动性更大 https://t.co/MsWR8O3mg2","quoted_status_full_text":null,"retweeted_status_full_text":null},{"locale":"zh-Hant","full_text":"週二檢測到的朝鮮武器發射是一種新的高超音速導彈，其燃料系統使部署速度更快，流動性更大 https://t.co/MsWR8O3mg2","quoted_status_full_text":null,"retweeted_status_full_text":null}]}},{"id":"TweetPost-1443655662286909445","excerpt":"","slug":"/tweet/1443655662286909445","title":"From @WSJopinion: Much of the media makes it sound as if renewables are on the verge of taking over. But that’s far from reality, writes @BjornLomborg https://t.co/13XiE1pX9Y","date":"October 01, 2021","dateISO":"2021-10-01T02:16:15.000Z","datetime":"2021-10-01 02:16","tags":["tweet"],"image":null,"imageAlt":null,"__typename":"SocialMediaPost","provider":"Twitter","thirdPartyId":"1443655662286909445","url":"https://twitter.com/WSJ/statuses/1443655662286909445","originalUrl":null,"imageRemote":null,"video":null,"channel":null,"channelUrl":null,"author":"The Wall Street Journal","authorUrl":"https://twitter.com/WSJ","authorImageRemote":"https://pbs.twimg.com/profile_images/971415515754266624/zCX0q9d5.jpg","authorImage":null,"authorSlug":"WSJ","score":151,"views":null,"sharedCount":30,"likeCount":91,"sharedContent":null,"parent":{"localize":[{"locale":"ja","full_text":"@WSJopinionより。多くのメディアは、自然エネルギーが主導権を握る寸前であるかのように報じています。しかし、それは現実とはかけ離れている、と @BjornLomborg は書いている。https://t.co/13XiE1pX9Y","quoted_status_full_text":null,"retweeted_status_full_text":null},{"locale":"zh","full_text":"来自@WSJopinion。许多媒体把可再生能源说得好像即将被取代一样。但这与现实相去甚远，@BjornLomborg 写道：https://t.co/13XiE1pX9Y","quoted_status_full_text":null,"retweeted_status_full_text":null},{"locale":"zh-Hant","full_text":"來自@WSJopinion。許多媒體把可再生能源說得好像即將被取代一樣。但這與現實相去甚遠，@BjornLomborg 寫道：https://t.co/13XiE1pX9Y","quoted_status_full_text":null,"retweeted_status_full_text":null}]}},{"id":"TweetPost-1443713539760349185","excerpt":"","slug":"/tweet/1443713539760349185","title":"A lawsuit involving a baby in Alabama, if proven in court, will mark the first alleged death from a ransomware attack. “This was preventable.” https://t.co/Fqvq4iMfra","date":"October 01, 2021","dateISO":"2021-10-01T02:16:15.000Z","datetime":"2021-10-01 02:16","tags":["tweet"],"image":null,"imageAlt":null,"__typename":"SocialMediaPost","provider":"Twitter","thirdPartyId":"1443713539760349185","url":"https://twitter.com/WSJ/statuses/1443713539760349185","originalUrl":null,"imageRemote":null,"video":null,"channel":null,"channelUrl":null,"author":"The Wall Street Journal","authorUrl":"https://twitter.com/WSJ","authorImageRemote":"https://pbs.twimg.com/profile_images/971415515754266624/zCX0q9d5.jpg","authorImage":null,"authorSlug":"WSJ","score":167,"views":null,"sharedCount":41,"likeCount":85,"sharedContent":null,"parent":{"localize":[{"locale":"ja","full_text":"アラバマ州の赤ちゃんの訴訟が法廷で立証されれば、ランサムウェア攻撃による初の死亡疑惑となります。\"This was preventable.\" https://t.co/Fqvq4iMfra","quoted_status_full_text":null,"retweeted_status_full_text":null},{"locale":"zh","full_text":"涉及阿拉巴马州一名婴儿的诉讼，如果在法庭上得到证实，将标志着第一个据称因勒索软件攻击而死亡的案例。\"这是可以预防的。\" https://t.co/Fqvq4iMfra","quoted_status_full_text":null,"retweeted_status_full_text":null},{"locale":"zh-Hant","full_text":"涉及阿拉巴馬州一名嬰兒的訴訟，如果在法庭上得到證實，將標誌着第一個據稱因勒索軟件攻擊而死亡的案例。\"這是可以預防的。\" https://t.co/Fqvq4iMfra","quoted_status_full_text":null,"retweeted_status_full_text":null}]}},{"id":"TweetPost-1443731139047432197","excerpt":"","slug":"/tweet/1443731139047432197","title":"From @WSJopinion: Democrats will lose more seats in 2022 if the huge tax and spending bill passes, writes @KarlRove https://t.co/35P2uAkOYI","date":"October 01, 2021","dateISO":"2021-10-01T02:16:15.000Z","datetime":"2021-10-01 02:16","tags":["tweet"],"image":null,"imageAlt":null,"__typename":"SocialMediaPost","provider":"Twitter","thirdPartyId":"1443731139047432197","url":"https://twitter.com/WSJ/statuses/1443731139047432197","originalUrl":null,"imageRemote":null,"video":null,"channel":null,"channelUrl":null,"author":"The Wall Street Journal","authorUrl":"https://twitter.com/WSJ","authorImageRemote":"https://pbs.twimg.com/profile_images/971415515754266624/zCX0q9d5.jpg","authorImage":null,"authorSlug":"WSJ","score":190,"views":null,"sharedCount":32,"likeCount":126,"sharedContent":null,"parent":{"localize":[{"locale":"ja","full_text":"@WSJopinionより。巨大な税・歳出法案が通過すれば、民主党は2022年にさらに議席を減らすだろうと、@KarlRove氏は書いている https://t.co/35P2uAkOYI","quoted_status_full_text":null,"retweeted_status_full_text":null},{"locale":"zh","full_text":"来自@WSJopinion。如果巨大的税收和支出法案获得通过，民主党将在2022年失去更多席位，@KarlRove写道：https://t.co/35P2uAkOYI","quoted_status_full_text":null,"retweeted_status_full_text":null},{"locale":"zh-Hant","full_text":"來自@WSJopinion。如果巨大的稅收和支出法案獲得通過，民主黨將在2022年失去更多席位，@KarlRove寫道：https://t.co/35P2uAkOYI","quoted_status_full_text":null,"retweeted_status_full_text":null}]}},{"id":"TweetPost-1443738705173401601","excerpt":"","slug":"/tweet/1443738705173401601","title":"An organization representing school boards across the U.S. is asking the federal government for help in response to threats and harassment over Covid-19 protocols in schools https://t.co/r4SEjSHwmD","date":"October 01, 2021","dateISO":"2021-10-01T02:16:15.000Z","datetime":"2021-10-01 02:16","tags":["tweet"],"image":null,"imageAlt":null,"__typename":"SocialMediaPost","provider":"Twitter","thirdPartyId":"1443738705173401601","url":"https://twitter.com/WSJ/statuses/1443738705173401601","originalUrl":null,"imageRemote":null,"video":null,"channel":null,"channelUrl":null,"author":"The Wall Street Journal","authorUrl":"https://twitter.com/WSJ","authorImageRemote":"https://pbs.twimg.com/profile_images/971415515754266624/zCX0q9d5.jpg","authorImage":null,"authorSlug":"WSJ","score":155,"views":null,"sharedCount":39,"likeCount":77,"sharedContent":null,"parent":{"localize":[{"locale":"ja","full_text":"全米の教育委員会を代表する組織が、学校におけるCovid-19プロトコルをめぐる脅迫や嫌がらせに対して、連邦政府に支援を求めている https://t.co/r4SEjSHwmD","quoted_status_full_text":null,"retweeted_status_full_text":null},{"locale":"zh","full_text":"一个代表美国各地学校董事会的组织正在请求联邦政府帮助应对学校中关于Covid-19协议的威胁和骚扰https://t.co/r4SEjSHwmD。","quoted_status_full_text":null,"retweeted_status_full_text":null},{"locale":"zh-Hant","full_text":"一個代表美國各地學校董事會的組織正在請求聯邦政府幫助應對學校中關於Covid-19協議的威脅和騷擾https://t.co/r4SEjSHwmD。","quoted_status_full_text":null,"retweeted_status_full_text":null}]}},{"id":"TweetPost-1443745149205598211","excerpt":"","slug":"/tweet/1443745149205598211","title":"Disney and Scarlett Johansson have resolved their legal battle over her salary in “Black Widow,” ending a two-month fight between the media giant and one of Hollywood’s biggest stars https://t.co/LBkWmqjcZK","date":"October 01, 2021","dateISO":"2021-10-01T02:16:15.000Z","datetime":"2021-10-01 02:16","tags":["tweet"],"image":null,"imageAlt":null,"__typename":"SocialMediaPost","provider":"Twitter","thirdPartyId":"1443745149205598211","url":"https://twitter.com/WSJ/statuses/1443745149205598211","originalUrl":null,"imageRemote":null,"video":null,"channel":null,"channelUrl":null,"author":"The Wall Street Journal","authorUrl":"https://twitter.com/WSJ","authorImageRemote":"https://pbs.twimg.com/profile_images/971415515754266624/zCX0q9d5.jpg","authorImage":null,"authorSlug":"WSJ","score":184,"views":null,"sharedCount":28,"likeCount":128,"sharedContent":null,"parent":{"localize":[{"locale":"ja","full_text":"ディズニーとスカーレット・ヨハンソンは、「ブラック・ウィドウ」の出演料をめぐる訴訟を解決し、メディア大手とハリウッドの大スターとの2ヶ月にわたる争いに終止符を打ちました。https://t.co/LBkWmqjcZK","quoted_status_full_text":null,"retweeted_status_full_text":null},{"locale":"zh","full_text":"迪斯尼和斯嘉丽-约翰逊已经解决了他们关于她在《黑寡妇》中的工资的法律纠纷，结束了媒体巨头和好莱坞最大的明星之一之间两个月的斗争https://t.co/LBkWmqjcZK。","quoted_status_full_text":null,"retweeted_status_full_text":null},{"locale":"zh-Hant","full_text":"迪斯尼和斯嘉麗-約翰遜已經解決了他們關於她在《黑寡婦》中的工資的法律糾紛，結束了媒體巨頭和好萊塢最大的明星之一之間兩個月的鬥爭https://t.co/LBkWmqjcZK。","quoted_status_full_text":null,"retweeted_status_full_text":null}]}}]}},"pageContext":{"basePath":"/","pageType":"home","tagsFilter":{"date":{"gt":"2000-12-25T10:54:58.000Z"}},"filter":{"date":{"gt":"2000-12-25T10:54:58.000Z"}},"limit":50,"skip":1750,"totalPages":36,"total":1761,"currentPage":36,"maxWidth":1024,"maxHeight":512,"siteMetadata":null,"locale":"en","hrefLang":"en-US","originalPath":"/page/36","dateFormat":"MM/DD/YYYY"}},
    "staticQueryHashes": ["1239077767","2744905544","3025052997","3280999885"]}